Vulpes_vulpes,1468,1001,580,312,IMG2_0188.jpg,2048,1536
Vulpes_vulpes,283,1034,679,389,IMG2_0208.jpg,2048,1536
Vulpes_vulpes,1327,699,222,148,IMG2_2307.jpg,2048,1536
Vulpes_vulpes,1197,669,378,170,IMG2_4998.jpg,2048,1536
Vulpes_vulpes,704,1224,847,279,IMG3_0211.jpg,2048,1536
Vulpes_vulpes,428,1190,424,313,IMG4_0181.jpg,2048,1536
Vulpes_vulpes,147,1031,677,432,IMG5_0148.jpg,2048,1536
Vulpes_vulpes,591,1053,738,347,IMG6_0170.jpg,2048,1536
Vulpes_vulpes,461,779,403,163,IMG_0034.JPG,2048,1536
Vulpes_vulpes,182,822,286,240,IMG_0063.JPG,2048,1536
Vulpes_vulpes,546,1077,749,335,IMG_0119.JPG,2048,1536
Vulpes_vulpes,939,1062,643,344,IMG_0124.JPG,2048,1536
Vulpes_vulpes,1149,854,135,161,IMG_0145.JPG,2048,1536
Vulpes_vulpes,816,1098,281,381,IMG_0209.JPG,2048,1536
Vulpes_vulpes,937,1113,390,389,IMG_0235.JPG,2048,1536
Vulpes_vulpes,564,1071,535,359,IMG_0238.JPG,2048,1536
Vulpes_vulpes,1471,1132,236,371,IMG_0310.JPG,2048,1536
Vulpes_vulpes,429,823,303,253,IMG_0421.JPG,2048,1536
Vulpes_vulpes,271,1146,1002,354,IMG_0789.JPG,2048,1536
Vulpes_vulpes,1502,938,252,89,IMG_0958.JPG,2048,1536
Vulpes_vulpes,665,839,385,151,IMG_1169.JPG,2048,1536
Vulpes_vulpes,568,1117,683,312,IMG_1243.JPG,2048,1536
Vulpes_vulpes,267,900,205,229,IMG_1566.JPG,2048,1536
Vulpes_vulpes,179,1194,1203,307,IMG_2843.JPG,2048,1536
Vulpes_vulpes,256,1169,1100,336,IMG_2847.JPG,2048,1536
Vulpes_vulpes,545,813,315,160,IMG_3163.JPG,2048,1536