               epoch,      train/box_loss,      train/obj_loss,      train/cls_loss,   metrics/precision,      metrics/recall,     metrics/mAP_0.5,metrics/mAP_0.5:0.95,        val/box_loss,        val/obj_loss,        val/cls_loss,               x/lr0,               x/lr1,               x/lr2
                   0,             0.11791,            0.027839,            0.050061,           0.0030792,                0.25,           0.0049756,           0.0017705,              0.1023,            0.016805,             0.05311,              0.0007,              0.0007,              0.0937
                   1,            0.098683,             0.02567,            0.046013,             0.01134,                0.25,             0.02188,           0.0050409,            0.074915,            0.012346,            0.047732,           0.0014975,           0.0014975,            0.086498
                   2,             0.08036,            0.025865,            0.043439,            0.034853,             0.34821,            0.039843,            0.017283,             0.06439,           0.0096689,            0.046633,           0.0022924,           0.0022924,            0.079292
                   3,            0.069552,            0.025392,            0.041422,            0.017019,             0.33024,            0.020839,           0.0030601,            0.059648,           0.0081578,            0.048579,           0.0030847,           0.0030847,            0.072085
                   4,             0.06138,             0.02348,            0.040365,            0.032182,             0.65179,            0.054777,            0.026719,            0.056514,            0.007561,            0.043475,           0.0038743,           0.0038743,            0.064874
                   5,            0.058769,            0.023329,            0.039553,             0.66554,            0.071429,             0.10232,             0.03763,            0.048877,           0.0068233,             0.04326,           0.0046612,           0.0046612,            0.057661
                   6,            0.062284,            0.019769,            0.038125,            0.074565,             0.10714,            0.064576,            0.014431,            0.064662,           0.0057911,            0.046465,           0.0054456,           0.0054456,            0.050446
                   7,            0.065248,            0.020723,            0.037108,            0.083628,             0.42857,             0.12066,             0.04205,            0.051579,           0.0055289,            0.044085,           0.0062272,           0.0062272,            0.043227
                   8,            0.063205,            0.019788,            0.035819,            0.081084,             0.39286,             0.10684,            0.058116,             0.06697,           0.0052496,            0.041075,           0.0070063,           0.0070063,            0.036006
                   9,            0.058872,            0.018133,            0.033881,             0.15993,              0.3207,             0.19514,             0.10555,            0.064314,           0.0059585,            0.039195,           0.0077827,           0.0077827,            0.028783
                  10,            0.057545,            0.018509,            0.030055,            0.093523,             0.41651,            0.092809,            0.020751,            0.056843,           0.0069534,            0.043777,           0.0085565,           0.0085565,            0.021556
                  11,            0.055543,            0.015968,            0.029292,            0.087791,             0.42857,             0.11589,            0.043392,            0.054832,           0.0063457,            0.049346,           0.0093276,           0.0093276,            0.014328
                  12,            0.054388,            0.015098,            0.027682,             0.10732,             0.41964,             0.13948,            0.067961,            0.056018,            0.010004,            0.027695,            0.009802,            0.009802,            0.009802
                  13,            0.052804,            0.016779,            0.026116,             0.15955,             0.26709,              0.1516,            0.061504,              0.0497,           0.0096675,             0.02789,            0.009802,            0.009802,            0.009802
                  14,            0.050021,            0.014889,            0.022278,             0.23799,             0.54399,              0.2647,             0.12298,            0.055059,           0.0089814,            0.032255,           0.0097855,           0.0097855,           0.0097855
                  15,            0.049942,            0.015505,            0.018915,             0.14795,             0.55357,             0.28385,             0.11465,            0.052307,           0.0094276,             0.02155,            0.009769,            0.009769,            0.009769
                  16,            0.056046,            0.013839,            0.014868,             0.11643,             0.65179,             0.14346,            0.060483,            0.048183,           0.0083906,             0.02235,           0.0097525,           0.0097525,           0.0097525
                  17,            0.050939,             0.01243,            0.012736,            0.098752,             0.32143,             0.11145,             0.05075,            0.042549,           0.0067678,            0.071986,            0.009736,            0.009736,            0.009736
                  18,            0.048545,            0.013375,            0.012878,             0.19194,             0.64286,             0.31301,            0.084404,            0.056459,            0.009747,            0.021537,           0.0097195,           0.0097195,           0.0097195
                  19,            0.047501,            0.012967,           0.0099299,             0.25311,             0.55917,             0.32662,             0.19472,            0.049056,           0.0092598,            0.021597,            0.009703,            0.009703,            0.009703
                  20,            0.041949,            0.011547,            0.010596,             0.16971,             0.16071,              0.1886,            0.087418,              0.0503,            0.009195,               0.042,           0.0096865,           0.0096865,           0.0096865
                  21,             0.04791,             0.01191,           0.0096341,             0.10279,             0.30357,             0.11251,            0.052819,            0.044679,           0.0067796,            0.041342,             0.00967,             0.00967,             0.00967
                  22,            0.042473,            0.012451,            0.010098,             0.19161,             0.49023,              0.1609,             0.08856,            0.038963,           0.0099408,            0.061645,           0.0096535,           0.0096535,           0.0096535
                  23,            0.043536,            0.011609,           0.0073801,             0.16056,             0.70827,             0.21761,             0.13859,            0.034438,           0.0077273,            0.029233,            0.009637,            0.009637,            0.009637
                  24,            0.040911,            0.011391,           0.0082726,             0.57959,             0.53571,             0.36802,             0.15635,            0.043112,           0.0064117,            0.024774,           0.0096205,           0.0096205,           0.0096205
                  25,            0.040806,            0.010943,           0.0075491,             0.68195,             0.57143,             0.47908,               0.263,            0.039179,           0.0061057,            0.027477,            0.009604,            0.009604,            0.009604
                  26,            0.043079,            0.011433,           0.0065018,             0.49896,             0.47309,             0.32727,              0.1986,            0.042856,            0.010155,            0.051753,           0.0095875,           0.0095875,           0.0095875
                  27,            0.037476,            0.011505,           0.0067599,             0.29591,             0.66412,             0.43997,              0.3138,            0.032218,            0.007613,            0.023081,            0.009571,            0.009571,            0.009571
                  28,            0.038129,            0.010904,           0.0066077,             0.35681,             0.46723,             0.31742,             0.21583,            0.043258,           0.0065846,            0.033615,           0.0095545,           0.0095545,           0.0095545
                  29,             0.03758,            0.012451,           0.0056522,             0.22358,             0.61607,             0.27283,             0.16246,            0.036228,           0.0060878,            0.003496,            0.009538,            0.009538,            0.009538
                  30,            0.036216,            0.011256,           0.0061717,              0.4169,             0.47641,             0.14643,            0.096082,            0.046306,             0.00624,            0.046925,           0.0095215,           0.0095215,           0.0095215
                  31,            0.037394,            0.011495,            0.007654,              0.1398,             0.51786,             0.12101,             0.08449,              0.0492,           0.0075497,            0.044368,            0.009505,            0.009505,            0.009505
                  32,            0.037132,            0.011202,           0.0051423,             0.20453,             0.58036,             0.24848,             0.11717,            0.038272,            0.006239,            0.031108,           0.0094885,           0.0094885,           0.0094885
                  33,             0.03916,            0.011244,           0.0058879,             0.52797,             0.58636,             0.28619,             0.13893,            0.036058,           0.0061072,            0.032134,            0.009472,            0.009472,            0.009472
                  34,            0.038391,            0.011618,           0.0060702,             0.23542,             0.58929,             0.30588,             0.18571,            0.028825,           0.0062047,            0.024544,           0.0094555,           0.0094555,           0.0094555
                  35,            0.034649,            0.011033,           0.0043744,              0.2234,             0.58929,             0.31713,               0.193,            0.029273,           0.0065601,            0.019036,            0.009439,            0.009439,            0.009439
                  36,            0.034576,            0.010644,           0.0047164,             0.24994,             0.58036,             0.30134,             0.18226,            0.037864,           0.0059463,           0.0075432,           0.0094225,           0.0094225,           0.0094225
                  37,            0.034017,            0.010796,           0.0054204,              0.6299,             0.70021,             0.39056,             0.26361,            0.029347,           0.0056622,           0.0040165,            0.009406,            0.009406,            0.009406
                  38,            0.032013,            0.010709,           0.0041672,             0.23261,             0.52679,             0.29267,              0.1986,            0.028822,           0.0058193,            0.024906,           0.0093895,           0.0093895,           0.0093895
                  39,            0.034629,            0.011157,           0.0053966,             0.24823,             0.51786,             0.30568,             0.20762,            0.034996,           0.0057844,           0.0082449,            0.009373,            0.009373,            0.009373
                  40,            0.031494,            0.010136,           0.0050897,              0.2436,             0.67792,             0.28917,             0.19177,            0.036031,           0.0078055,             0.01432,           0.0093565,           0.0093565,           0.0093565
                  41,             0.03238,            0.010888,           0.0072887,             0.34583,             0.60412,             0.38703,             0.28236,            0.034626,           0.0067142,             0.01922,             0.00934,             0.00934,             0.00934
                  42,            0.032758,            0.010318,           0.0043229,              0.4186,              0.4902,             0.39254,             0.27217,             0.03451,           0.0060354,            0.016813,           0.0093235,           0.0093235,           0.0093235
                  43,             0.03397,            0.010296,            0.004778,             0.22963,             0.71444,             0.35698,             0.26682,            0.030948,           0.0065074,            0.017792,            0.009307,            0.009307,            0.009307
                  44,              0.0334,            0.010834,            0.005579,             0.38195,             0.48784,             0.42006,              0.2958,            0.032632,           0.0061314,            0.022204,           0.0092905,           0.0092905,           0.0092905
                  45,            0.033633,            0.010626,           0.0053626,             0.26584,             0.64286,             0.38054,             0.30749,            0.027464,           0.0063297,           0.0024722,            0.009274,            0.009274,            0.009274
                  46,            0.029356,           0.0097789,           0.0057661,             0.37414,             0.51786,             0.35781,             0.25039,            0.032409,           0.0058109,            0.010053,           0.0092575,           0.0092575,           0.0092575
                  47,            0.031146,           0.0098518,           0.0046967,             0.27953,             0.51786,             0.37922,             0.25186,            0.032864,           0.0060765,            0.021325,            0.009241,            0.009241,            0.009241
                  48,            0.034475,           0.0095261,             0.00365,             0.30597,             0.48746,             0.35844,             0.26664,            0.036891,           0.0050632,            0.026354,           0.0092245,           0.0092245,           0.0092245
                  49,            0.030767,            0.010009,            0.003415,             0.41868,             0.42655,             0.44667,             0.33239,            0.043637,            0.004597,            0.028178,            0.009208,            0.009208,            0.009208
                  50,            0.031613,            0.010346,           0.0042091,             0.41513,             0.41964,             0.47015,             0.37561,            0.037682,           0.0057547,             0.02054,           0.0091915,           0.0091915,           0.0091915
                  51,            0.029616,           0.0099383,           0.0041522,              0.2835,             0.57914,             0.39525,             0.30176,            0.032923,           0.0060373,           0.0083617,            0.009175,            0.009175,            0.009175
                  52,             0.03159,           0.0091719,           0.0035164,             0.25146,             0.71404,             0.32176,             0.24561,            0.027422,           0.0062054,           0.0037562,           0.0091585,           0.0091585,           0.0091585
                  53,            0.031667,            0.010113,            0.003424,             0.26472,             0.71429,             0.34827,             0.21984,            0.028781,           0.0058788,           0.0023004,            0.009142,            0.009142,            0.009142
                  54,            0.029267,           0.0095018,           0.0037404,             0.23815,             0.71429,             0.36674,              0.2888,            0.026939,           0.0063976,           0.0035027,           0.0091255,           0.0091255,           0.0091255
                  55,            0.029738,           0.0093656,            0.003349,             0.32311,             0.72081,             0.38021,             0.26629,            0.026295,           0.0060524,           0.0033719,            0.009109,            0.009109,            0.009109
                  56,            0.031071,           0.0091499,            0.003108,             0.25472,             0.69388,             0.29529,             0.18235,            0.031227,           0.0055746,           0.0038326,           0.0090925,           0.0090925,           0.0090925
                  57,            0.032225,           0.0094741,           0.0026515,             0.25815,             0.71436,             0.43573,                 0.3,            0.027643,           0.0057082,            0.002314,            0.009076,            0.009076,            0.009076
                  58,            0.029551,           0.0088586,           0.0030482,             0.22174,             0.74992,             0.39352,             0.29968,            0.026033,           0.0056473,           0.0022026,           0.0090595,           0.0090595,           0.0090595
                  59,               0.031,           0.0096487,           0.0032225,             0.23399,             0.74817,             0.45746,             0.37902,            0.020611,           0.0053505,           0.0058041,            0.009043,            0.009043,            0.009043
                  60,            0.028962,           0.0090849,           0.0025539,             0.24959,              0.9927,             0.36613,             0.27234,             0.02232,           0.0055257,            0.002729,           0.0090265,           0.0090265,           0.0090265
                  61,            0.029013,           0.0095423,           0.0030798,             0.26701,             0.92822,             0.32669,             0.21212,            0.025091,           0.0059219,           0.0023862,             0.00901,             0.00901,             0.00901
                  62,            0.029847,           0.0097738,           0.0033529,             0.29361,             0.63345,             0.34887,             0.27866,            0.022814,           0.0057056,           0.0067907,           0.0089935,           0.0089935,           0.0089935
                  63,            0.027515,           0.0093636,           0.0027209,             0.25872,             0.70073,             0.33217,             0.23385,            0.022658,           0.0059222,            0.012529,            0.008977,            0.008977,            0.008977
                  64,             0.02786,            0.008584,           0.0038297,             0.25004,             0.92857,             0.39806,             0.28577,             0.02439,            0.006313,           0.0026498,           0.0089605,           0.0089605,           0.0089605
                  65,            0.030358,           0.0088927,             0.00345,             0.25812,             0.89959,             0.32161,             0.24562,            0.023952,           0.0058624,           0.0027715,            0.008944,            0.008944,            0.008944
                  66,            0.026609,           0.0084963,           0.0037542,             0.25589,              0.9996,             0.39675,             0.30409,            0.021359,            0.005556,           0.0034387,           0.0089275,           0.0089275,           0.0089275
                  67,            0.026758,           0.0084867,           0.0031695,             0.34979,              0.9335,             0.43567,              0.3067,            0.025224,           0.0060742,           0.0018919,            0.008911,            0.008911,            0.008911
                  68,            0.027597,           0.0090995,           0.0042113,             0.28989,             0.67857,             0.43801,             0.36336,            0.022201,           0.0058096,           0.0020583,           0.0088945,           0.0088945,           0.0088945
                  69,            0.027635,           0.0083609,             0.00378,             0.28186,             0.96429,             0.38011,             0.29371,            0.019629,           0.0054658,           0.0015101,            0.008878,            0.008878,            0.008878
                  70,            0.027756,           0.0083335,           0.0037185,             0.24447,                0.75,             0.34004,             0.25229,            0.025176,           0.0061062,           0.0014597,           0.0088615,           0.0088615,           0.0088615
                  71,            0.027071,           0.0084409,           0.0032025,             0.23517,                0.75,              0.3051,              0.1981,            0.025321,           0.0059881,           0.0013382,            0.008845,            0.008845,            0.008845
                  72,            0.028767,            0.009243,           0.0025561,             0.24647,             0.70194,             0.35736,             0.27251,            0.025381,           0.0060392,           0.0015076,           0.0088285,           0.0088285,           0.0088285
                  73,            0.028805,           0.0085709,           0.0035788,             0.26475,             0.64286,             0.32121,             0.23861,            0.023415,           0.0058064,           0.0023782,            0.008812,            0.008812,            0.008812
                  74,            0.026733,            0.008753,           0.0020887,             0.29135,             0.57829,             0.30927,             0.24473,            0.025268,           0.0057592,           0.0019972,           0.0087955,           0.0087955,           0.0087955
                  75,            0.027042,           0.0080152,           0.0035517,             0.25471,             0.64286,             0.30782,             0.24147,            0.023018,           0.0059405,            0.003356,            0.008779,            0.008779,            0.008779
                  76,            0.027618,           0.0083847,           0.0024427,             0.25372,             0.58729,             0.30333,              0.2314,            0.028361,           0.0059003,            0.019776,           0.0087625,           0.0087625,           0.0087625
                  77,            0.025393,           0.0090008,           0.0029854,               0.281,             0.50752,             0.39804,             0.34109,            0.024487,           0.0062794,           0.0093934,            0.008746,            0.008746,            0.008746
                  78,            0.024812,           0.0088901,           0.0026308,             0.23555,             0.89916,             0.37054,             0.26577,            0.024143,           0.0058036,           0.0019056,           0.0087295,           0.0087295,           0.0087295
                  79,            0.026781,             0.00888,           0.0020792,             0.25142,             0.99954,             0.37099,             0.26117,            0.025444,           0.0063639,           0.0014128,            0.008713,            0.008713,            0.008713
                  80,            0.029238,            0.008479,           0.0026608,             0.25798,             0.99971,              0.2974,             0.23048,            0.022303,           0.0063342,           0.0016894,           0.0086965,           0.0086965,           0.0086965
                  81,             0.02407,           0.0082734,           0.0032415,             0.26344,                   1,             0.30829,             0.22649,            0.022768,           0.0063972,           0.0020948,             0.00868,             0.00868,             0.00868
                  82,            0.026788,           0.0082873,           0.0020488,              0.2406,             0.72884,             0.28949,             0.21272,            0.023616,           0.0060887,           0.0036283,           0.0086635,           0.0086635,           0.0086635
                  83,            0.025854,           0.0084534,           0.0025663,             0.23709,                   1,             0.32403,             0.22959,            0.021356,           0.0061807,           0.0020296,            0.008647,            0.008647,            0.008647
                  84,            0.025293,           0.0076919,            0.002321,             0.25044,                0.75,             0.33186,             0.25523,            0.021543,           0.0057984,           0.0015362,           0.0086305,           0.0086305,           0.0086305
                  85,            0.025471,           0.0083767,           0.0023104,             0.26162,                0.75,             0.36234,             0.27522,            0.020547,           0.0058214,           0.0014667,            0.008614,            0.008614,            0.008614
                  86,            0.022777,           0.0079845,             0.00243,             0.28308,                0.75,             0.35985,             0.26843,            0.023237,           0.0064395,           0.0014297,           0.0085975,           0.0085975,           0.0085975
                  87,            0.025319,           0.0082422,           0.0023859,             0.31646,             0.60487,             0.41374,             0.33126,            0.022483,            0.006335,           0.0015943,            0.008581,            0.008581,            0.008581
                  88,             0.02525,           0.0082737,           0.0022425,             0.24903,                   1,             0.49493,             0.41613,            0.021996,           0.0061885,           0.0016078,           0.0085645,           0.0085645,           0.0085645
                  89,            0.024665,           0.0081356,           0.0020525,             0.29897,             0.57629,              0.3304,             0.27001,            0.021491,           0.0062715,           0.0016472,            0.008548,            0.008548,            0.008548
                  90,            0.023877,           0.0076509,           0.0020475,              0.2825,             0.69845,             0.37537,             0.31026,            0.020557,           0.0063195,           0.0016822,           0.0085315,           0.0085315,           0.0085315
                  91,             0.02728,           0.0087705,           0.0026794,             0.25633,                0.75,             0.39096,             0.31526,              0.0204,           0.0059447,            0.002982,            0.008515,            0.008515,            0.008515
                  92,            0.024581,           0.0081622,           0.0023656,             0.33326,             0.74564,             0.43403,             0.36778,            0.023961,           0.0061577,           0.0029792,           0.0084985,           0.0084985,           0.0084985
                  93,            0.025984,           0.0077801,           0.0022998,             0.34632,             0.55486,             0.40654,             0.33988,            0.019921,           0.0056017,           0.0043433,            0.008482,            0.008482,            0.008482
                  94,            0.022193,            0.007694,           0.0020731,             0.26313,                   1,             0.35428,             0.30826,            0.020415,           0.0060588,           0.0028515,           0.0084655,           0.0084655,           0.0084655
                  95,            0.025066,           0.0080833,           0.0023675,             0.33256,             0.92857,             0.39031,             0.31792,            0.021277,           0.0059662,           0.0012548,            0.008449,            0.008449,            0.008449
                  96,            0.024326,           0.0076085,           0.0022837,             0.24606,                   1,             0.31894,             0.26168,            0.020893,            0.006074,           0.0014268,           0.0084325,           0.0084325,           0.0084325
                  97,            0.022637,           0.0078001,           0.0026933,              0.2661,             0.99969,             0.30223,             0.23105,            0.020526,           0.0065541,           0.0011594,            0.008416,            0.008416,            0.008416
                  98,            0.024598,           0.0081433,           0.0021184,              0.3202,             0.63977,             0.35643,             0.29428,            0.023425,           0.0061927,           0.0021551,           0.0083995,           0.0083995,           0.0083995
                  99,             0.02657,           0.0077117,           0.0020931,             0.32883,             0.63423,             0.37718,             0.31021,            0.022942,           0.0059331,           0.0045766,            0.008383,            0.008383,            0.008383
                 100,            0.024901,           0.0079646,           0.0020307,             0.28723,             0.60714,             0.39802,             0.33236,            0.022418,           0.0058397,           0.0083544,           0.0083665,           0.0083665,           0.0083665
                 101,             0.02323,           0.0080916,           0.0024464,             0.33866,             0.56554,             0.51044,             0.40791,            0.020487,           0.0057848,           0.0014726,             0.00835,             0.00835,             0.00835
                 102,            0.024608,           0.0078458,           0.0029304,             0.27404,             0.60753,             0.40441,             0.33189,            0.020464,           0.0060673,           0.0024137,           0.0083335,           0.0083335,           0.0083335
                 103,            0.024571,           0.0080268,           0.0024002,             0.34885,             0.60926,             0.48489,             0.42028,            0.021929,           0.0061989,           0.0028831,            0.008317,            0.008317,            0.008317
                 104,            0.024776,           0.0076562,           0.0025545,             0.27523,             0.56813,             0.32233,             0.27378,            0.022845,           0.0060035,           0.0035188,           0.0083005,           0.0083005,           0.0083005
                 105,            0.023812,           0.0073671,           0.0017794,             0.22602,                0.75,             0.30448,             0.25302,             0.02254,           0.0068302,           0.0026696,            0.008284,            0.008284,            0.008284
                 106,            0.024752,           0.0075956,           0.0016115,             0.22672,                0.75,               0.296,              0.2469,            0.019032,           0.0067398,           0.0025076,           0.0082675,           0.0082675,           0.0082675
                 107,            0.024698,           0.0074673,           0.0022665,             0.22956,                0.75,             0.29848,              0.2496,             0.01984,           0.0064577,           0.0040233,            0.008251,            0.008251,            0.008251
                 108,            0.024023,           0.0077966,           0.0017802,             0.23852,             0.65605,             0.31173,             0.24545,            0.020881,           0.0065028,           0.0035412,           0.0082345,           0.0082345,           0.0082345
                 109,            0.023525,           0.0074744,           0.0015237,             0.24913,             0.67857,             0.33492,             0.26905,            0.022126,           0.0068106,           0.0019353,            0.008218,            0.008218,            0.008218
                 110,            0.023765,           0.0070736,           0.0026781,             0.24608,             0.74129,             0.33319,             0.27427,            0.021237,           0.0067472,            0.002926,           0.0082015,           0.0082015,           0.0082015
                 111,            0.022868,            0.007774,           0.0017659,             0.23834,             0.73704,             0.31328,             0.27376,             0.01993,           0.0066129,           0.0019587,            0.008185,            0.008185,            0.008185
                 112,            0.022024,           0.0075538,           0.0021845,              0.2403,             0.73692,             0.31689,             0.27202,            0.022377,           0.0064841,           0.0017511,           0.0081685,           0.0081685,           0.0081685
                 113,            0.021938,           0.0070507,           0.0022843,             0.23547,             0.71667,              0.3172,             0.25497,            0.023656,           0.0067378,           0.0020229,            0.008152,            0.008152,            0.008152
                 114,            0.023527,           0.0082463,           0.0024628,              0.2534,                   1,             0.28945,             0.23453,            0.019371,           0.0064023,           0.0018586,           0.0081355,           0.0081355,           0.0081355
                 115,            0.022155,           0.0077389,           0.0020066,             0.25216,             0.74792,             0.37479,             0.32297,            0.019397,            0.006583,            0.004467,            0.008119,            0.008119,            0.008119
                 116,            0.022578,            0.008193,           0.0021831,             0.26705,             0.74991,             0.39763,             0.32808,             0.02094,           0.0067372,           0.0038205,           0.0081025,           0.0081025,           0.0081025
                 117,            0.023061,            0.006939,           0.0019027,             0.26946,             0.74942,             0.39245,             0.35258,            0.019721,            0.006888,           0.0035926,            0.008086,            0.008086,            0.008086
                 118,            0.021855,           0.0071899,           0.0017861,             0.24874,                0.75,             0.33766,             0.30357,            0.023852,           0.0070245,           0.0056329,           0.0080695,           0.0080695,           0.0080695
                 119,             0.02222,           0.0070633,           0.0018891,             0.25406,             0.74943,             0.29116,             0.23574,            0.021453,            0.006637,           0.0034248,            0.008053,            0.008053,            0.008053
                 120,            0.020691,           0.0070937,           0.0018674,             0.23444,                0.75,             0.30557,             0.25111,            0.020487,           0.0069438,           0.0023564,           0.0080365,           0.0080365,           0.0080365
                 121,            0.023004,           0.0074511,           0.0016899,             0.23455,                0.75,             0.26247,              0.2174,            0.022328,           0.0070249,           0.0040688,             0.00802,             0.00802,             0.00802
                 122,            0.020737,            0.007237,           0.0015124,             0.23521,                0.75,             0.27371,             0.24744,            0.021216,           0.0067093,           0.0034913,           0.0080035,           0.0080035,           0.0080035
                 123,            0.020581,           0.0073844,           0.0014233,             0.24054,                0.75,             0.31371,             0.27427,            0.023793,           0.0067687,           0.0045949,            0.007987,            0.007987,            0.007987
                 124,            0.023262,           0.0076929,           0.0015825,             0.23519,                0.75,               0.313,             0.27609,             0.02212,            0.006592,           0.0022172,           0.0079705,           0.0079705,           0.0079705
                 125,            0.020947,           0.0081998,           0.0019007,             0.23919,                0.75,             0.32159,             0.28609,            0.020566,           0.0065454,           0.0027167,            0.007954,            0.007954,            0.007954
                 126,            0.021872,           0.0071084,            0.001407,             0.24049,             0.69555,             0.28883,             0.25068,            0.020833,           0.0065825,           0.0035609,           0.0079375,           0.0079375,           0.0079375
                 127,            0.021777,           0.0075274,             0.00181,             0.23859,             0.71395,              0.2776,             0.24974,            0.021241,           0.0066633,           0.0066009,            0.007921,            0.007921,            0.007921
                 128,            0.022359,           0.0075963,           0.0017504,             0.24403,             0.71429,              0.2776,             0.24972,            0.017827,            0.006798,           0.0032088,           0.0079045,           0.0079045,           0.0079045
                 129,            0.023084,           0.0071976,           0.0014712,              0.2531,             0.71348,             0.29196,             0.25798,            0.018874,           0.0063557,           0.0050988,            0.007888,            0.007888,            0.007888
                 130,             0.02194,           0.0068381,           0.0014545,             0.26044,             0.67857,             0.30505,             0.28326,            0.020038,           0.0065354,            0.004427,           0.0078715,           0.0078715,           0.0078715
                 131,            0.021633,           0.0064593,           0.0012347,             0.24618,             0.71447,             0.31335,             0.27574,            0.021061,           0.0066338,           0.0017223,            0.007855,            0.007855,            0.007855
                 132,            0.022122,           0.0079763,            0.001845,             0.24711,             0.71774,             0.31531,              0.2719,            0.018926,           0.0069399,           0.0014015,           0.0078385,           0.0078385,           0.0078385
                 133,            0.023179,           0.0074846,           0.0021796,             0.25646,             0.67583,             0.31415,             0.26966,              0.0187,            0.006542,           0.0013173,            0.007822,            0.007822,            0.007822
                 134,             0.02183,           0.0066469,           0.0019568,             0.24819,             0.71386,             0.31401,             0.25919,            0.018782,           0.0064992,            0.001546,           0.0078055,           0.0078055,           0.0078055
                 135,            0.021024,           0.0071136,           0.0018759,              0.2365,                0.75,             0.30754,             0.26743,             0.02073,           0.0071014,           0.0045514,            0.007789,            0.007789,            0.007789
                 136,            0.021743,           0.0074082,           0.0021336,             0.25647,             0.71429,             0.32408,             0.26834,            0.018748,           0.0068796,           0.0027515,           0.0077725,           0.0077725,           0.0077725
                 137,            0.020535,           0.0071805,           0.0016659,             0.25927,             0.67778,             0.28675,             0.24475,            0.020902,           0.0069327,            0.003021,            0.007756,            0.007756,            0.007756
                 138,            0.022071,            0.006824,           0.0014918,              0.2911,             0.61607,             0.35357,             0.29834,            0.020348,            0.006879,            0.005866,           0.0077395,           0.0077395,           0.0077395
                 139,            0.021261,           0.0069315,           0.0019465,             0.31708,             0.67756,             0.48798,             0.38798,            0.021392,           0.0068623,             0.01115,            0.007723,            0.007723,            0.007723
                 140,            0.020713,           0.0072265,           0.0012091,             0.30058,             0.72845,             0.43032,             0.38882,            0.019613,           0.0070858,            0.015526,           0.0077065,           0.0077065,           0.0077065
                 141,            0.020016,           0.0068773,           0.0013734,             0.28696,             0.74647,             0.37612,             0.32966,            0.021132,           0.0068909,            0.013702,             0.00769,             0.00769,             0.00769
                 142,             0.02006,           0.0074146,           0.0016515,             0.25514,                0.75,             0.34112,              0.2956,            0.018359,            0.006974,           0.0042263,           0.0076735,           0.0076735,           0.0076735
                 143,            0.020216,           0.0074126,            0.001561,             0.31645,             0.55501,             0.40296,             0.35757,            0.018606,           0.0072753,           0.0044208,            0.007657,            0.007657,            0.007657
                 144,            0.019193,           0.0066295,           0.0012376,             0.31173,             0.54174,              0.3894,             0.35467,            0.018257,           0.0073772,           0.0035918,           0.0076405,           0.0076405,           0.0076405
                 145,            0.019633,           0.0068956,           0.0013641,             0.33925,             0.57375,             0.35564,             0.32188,            0.018156,           0.0073817,           0.0020157,            0.007624,            0.007624,            0.007624
                 146,            0.022322,           0.0068696,           0.0018046,             0.23498,                0.75,             0.33111,             0.27628,            0.019571,           0.0072222,           0.0018581,           0.0076075,           0.0076075,           0.0076075
                 147,            0.020866,           0.0070775,           0.0011545,             0.24482,             0.74991,             0.36686,             0.33733,            0.015527,            0.007085,           0.0022317,            0.007591,            0.007591,            0.007591
                 148,            0.020034,           0.0071398,           0.0020427,             0.23983,             0.71429,             0.33355,             0.27903,            0.017929,           0.0070021,            0.011268,           0.0075745,           0.0075745,           0.0075745
                 149,            0.022373,           0.0074201,           0.0013807,             0.23838,                0.75,             0.32108,             0.26319,            0.020432,           0.0067042,            0.011641,            0.007558,            0.007558,            0.007558
                 150,            0.020629,           0.0070991,           0.0016304,             0.24103,             0.91607,             0.30048,             0.24243,            0.019508,            0.006906,           0.0072539,           0.0075415,           0.0075415,           0.0075415
                 151,            0.019422,           0.0065984,           0.0015851,             0.24975,                   1,             0.31094,             0.27236,            0.017936,           0.0067228,           0.0050024,            0.007525,            0.007525,            0.007525
                 152,            0.018912,           0.0065081,           0.0012557,             0.24864,             0.99972,             0.35229,             0.30469,            0.017635,           0.0066082,           0.0040439,           0.0075085,           0.0075085,           0.0075085
                 153,            0.018275,           0.0071229,           0.0015344,             0.24018,             0.93573,             0.35756,             0.31213,            0.018284,           0.0067013,           0.0029411,            0.007492,            0.007492,            0.007492
                 154,            0.020629,           0.0068106,           0.0013895,             0.24138,             0.74998,             0.33975,              0.2922,            0.019644,           0.0067925,           0.0054513,           0.0074755,           0.0074755,           0.0074755
                 155,            0.019868,            0.007085,           0.0014175,             0.24352,                0.75,             0.34451,             0.28525,            0.017785,           0.0071495,           0.0016191,            0.007459,            0.007459,            0.007459
                 156,            0.019871,           0.0070086,           0.0012837,             0.28292,             0.56806,             0.36893,             0.31645,            0.017713,           0.0070249,          0.00095497,           0.0074425,           0.0074425,           0.0074425
                 157,             0.01803,           0.0066806,            0.001178,             0.24131,                   1,             0.30751,             0.26916,            0.014244,           0.0065381,          0.00083831,            0.007426,            0.007426,            0.007426
                 158,            0.018614,           0.0069639,            0.001718,             0.24692,             0.74996,             0.29206,             0.25266,            0.015843,           0.0073188,           0.0013588,           0.0074095,           0.0074095,           0.0074095
                 159,            0.019593,           0.0062424,           0.0022705,             0.32479,             0.64871,             0.34699,             0.30505,             0.01864,           0.0073437,           0.0024655,            0.007393,            0.007393,            0.007393
                 160,            0.019328,           0.0063352,           0.0014885,             0.26576,             0.53596,             0.29292,             0.26193,            0.018867,           0.0070968,            0.017959,           0.0073765,           0.0073765,           0.0073765
                 161,            0.019484,           0.0069577,           0.0014398,             0.26756,              0.5779,             0.32796,             0.28229,             0.01948,           0.0073639,           0.0078644,             0.00736,             0.00736,             0.00736
                 162,            0.020375,           0.0072658,           0.0019894,             0.25456,             0.67628,             0.31601,             0.26485,            0.016744,           0.0070078,           0.0013637,           0.0073435,           0.0073435,           0.0073435
                 163,            0.018091,           0.0072483,           0.0015412,             0.23482,                0.75,             0.33772,             0.29955,            0.014475,           0.0075098,           0.0012122,            0.007327,            0.007327,            0.007327
                 164,            0.020462,           0.0069988,           0.0012384,             0.24118,                0.75,             0.33187,             0.29279,            0.015719,            0.007194,           0.0016983,           0.0073105,           0.0073105,           0.0073105
                 165,            0.020435,           0.0067106,           0.0012556,             0.24938,                0.75,             0.31139,             0.26506,            0.015839,           0.0067601,           0.0016795,            0.007294,            0.007294,            0.007294
                 166,            0.021384,           0.0068003,           0.0013717,             0.24566,             0.99986,             0.31641,             0.28261,            0.015997,           0.0065266,          0.00095747,           0.0072775,           0.0072775,           0.0072775
                 167,            0.020425,            0.006902,           0.0018114,                0.25,                   1,             0.36664,             0.33282,            0.016424,           0.0062695,          0.00094947,            0.007261,            0.007261,            0.007261
                 168,            0.018463,           0.0063368,           0.0013122,             0.24083,                   1,              0.3401,             0.28706,            0.017062,           0.0062143,          0.00092629,           0.0072445,           0.0072445,           0.0072445
                 169,            0.019697,           0.0066271,           0.0018012,             0.26166,              0.6892,             0.31029,             0.25231,            0.017899,           0.0064316,           0.0009006,            0.007228,            0.007228,            0.007228
                 170,             0.02128,           0.0069041,           0.0011503,             0.24203,             0.99986,             0.32446,             0.28426,            0.017528,           0.0060726,          0.00087925,           0.0072115,           0.0072115,           0.0072115
                 171,            0.019362,           0.0065588,           0.0019429,             0.27123,             0.71429,             0.34125,             0.30086,            0.017138,           0.0064048,           0.0012725,            0.007195,            0.007195,            0.007195
                 172,            0.020192,           0.0066546,           0.0010558,             0.33408,              0.6401,             0.41279,             0.36688,             0.01806,           0.0068882,           0.0021462,           0.0071785,           0.0071785,           0.0071785
                 173,            0.019088,           0.0067444,           0.0014537,             0.35767,             0.67857,             0.46388,             0.42921,            0.016006,           0.0074885,           0.0012095,            0.007162,            0.007162,            0.007162
                 174,            0.018783,           0.0064246,           0.0011478,             0.41122,             0.59748,             0.44915,             0.39892,            0.017178,           0.0070474,          0.00078217,           0.0071455,           0.0071455,           0.0071455
                 175,            0.018981,           0.0067039,           0.0014812,             0.39732,             0.67857,             0.44628,              0.3956,            0.016487,              0.0066,          0.00069137,            0.007129,            0.007129,            0.007129
                 176,            0.020013,           0.0063593,            0.000899,             0.36335,              0.6843,             0.43133,             0.39924,            0.016099,           0.0065714,          0.00079597,           0.0071125,           0.0071125,           0.0071125
                 177,            0.018855,           0.0065802,           0.0010779,             0.25825,                0.75,             0.38811,             0.34593,            0.015772,           0.0069273,           0.0010978,            0.007096,            0.007096,            0.007096
                 178,            0.018391,           0.0064477,            0.001207,             0.33849,             0.62045,             0.41367,             0.38227,            0.017883,           0.0071557,           0.0020494,           0.0070795,           0.0070795,           0.0070795
                 179,            0.017978,           0.0070279,           0.0011878,              0.2547,                0.75,             0.36976,             0.33615,            0.017377,           0.0072626,           0.0043477,            0.007063,            0.007063,            0.007063
                 180,            0.020626,           0.0067552,           0.0013628,             0.25237,                0.75,             0.30462,             0.27792,            0.019124,           0.0070886,           0.0097491,           0.0070465,           0.0070465,           0.0070465
                 181,            0.017921,           0.0062905,           0.0011222,             0.24922,             0.72861,             0.31843,             0.28972,            0.018705,            0.007492,            0.015334,             0.00703,             0.00703,             0.00703
                 182,            0.018721,           0.0068637,            0.001085,             0.23536,                0.75,             0.28575,             0.26063,            0.018256,           0.0074643,            0.016061,           0.0070135,           0.0070135,           0.0070135
                 183,            0.019469,           0.0060805,           0.0016302,             0.24702,             0.71429,             0.28963,             0.25451,            0.018688,           0.0073276,           0.0087712,            0.006997,            0.006997,            0.006997
                 184,            0.018126,           0.0064346,           0.0012254,             0.25389,             0.71394,             0.28789,             0.24565,            0.019034,           0.0070616,           0.0014188,           0.0069805,           0.0069805,           0.0069805
                 185,            0.017212,           0.0059309,           0.0013353,             0.24281,                0.75,              0.2691,             0.23639,            0.015696,           0.0075335,          0.00099781,            0.006964,            0.006964,            0.006964
                 186,            0.019461,            0.006541,            0.001644,             0.23342,             0.97665,             0.27777,             0.24269,            0.016399,           0.0078015,          0.00088687,           0.0069475,           0.0069475,           0.0069475
                 187,            0.021445,           0.0061187,            0.001056,             0.25159,                0.75,             0.30359,             0.25411,            0.016299,            0.007119,          0.00083284,            0.006931,            0.006931,            0.006931
                 188,            0.019312,           0.0061805,           0.0013343,             0.25806,             0.73347,             0.34952,             0.30742,            0.017375,           0.0069731,          0.00088574,           0.0069145,           0.0069145,           0.0069145
                 189,            0.018433,           0.0062355,           0.0010489,             0.26391,             0.71349,              0.3632,             0.31352,            0.017313,           0.0071754,          0.00081097,            0.006898,            0.006898,            0.006898
                 190,            0.017414,            0.006152,           0.0013544,              0.2583,             0.72212,             0.35364,             0.31528,            0.016959,           0.0074546,          0.00081301,           0.0068815,           0.0068815,           0.0068815
                 191,            0.019966,           0.0063046,             0.00116,             0.25832,             0.74998,             0.33802,              0.3048,            0.016041,            0.007183,           0.0009018,            0.006865,            0.006865,            0.006865
                 192,            0.018647,           0.0066771,           0.0013355,             0.25223,                0.75,             0.32039,             0.29262,            0.015132,           0.0075597,          0.00090526,           0.0068485,           0.0068485,           0.0068485
                 193,            0.018238,           0.0062659,          0.00086208,             0.23626,             0.99987,             0.31032,             0.27675,            0.015295,           0.0072531,          0.00080963,            0.006832,            0.006832,            0.006832
                 194,            0.017209,           0.0062418,          0.00081009,             0.24143,             0.99982,             0.33664,             0.30212,            0.014338,           0.0070236,          0.00071097,           0.0068155,           0.0068155,           0.0068155
                 195,            0.018515,            0.005957,          0.00076995,             0.26528,                0.75,             0.33933,             0.30418,            0.014212,           0.0071371,          0.00071708,            0.006799,            0.006799,            0.006799
                 196,            0.018584,           0.0060531,           0.0014557,             0.26453,                0.75,             0.29355,             0.27458,            0.015432,           0.0077054,          0.00094465,           0.0067825,           0.0067825,           0.0067825
                 197,            0.017643,           0.0062157,          0.00095652,             0.25387,                0.75,              0.2899,             0.27138,            0.013669,           0.0077716,          0.00080719,            0.006766,            0.006766,            0.006766
                 198,            0.018315,           0.0061606,           0.0012101,             0.26213,              0.7497,             0.30774,             0.28243,            0.014067,           0.0074275,          0.00076259,           0.0067495,           0.0067495,           0.0067495
                 199,            0.017427,           0.0060489,           0.0014391,             0.23454,             0.98291,             0.32851,             0.29432,            0.013358,           0.0074763,          0.00079495,            0.006733,            0.006733,            0.006733
                 200,             0.01889,            0.006057,           0.0010409,             0.24193,                0.75,             0.33447,             0.29703,            0.016505,           0.0075089,          0.00077593,           0.0067165,           0.0067165,           0.0067165
                 201,            0.018648,           0.0062567,           0.0011757,             0.32748,             0.47762,             0.42157,             0.38043,             0.01486,           0.0070553,          0.00090332,              0.0067,              0.0067,              0.0067
                 202,            0.017715,           0.0062149,           0.0016642,             0.25088,             0.74976,             0.34747,             0.30649,            0.015723,            0.007208,          0.00094096,           0.0066835,           0.0066835,           0.0066835
                 203,            0.018313,            0.005971,           0.0011076,             0.31692,             0.52781,             0.40783,             0.37559,            0.013604,           0.0073826,           0.0006518,            0.006667,            0.006667,            0.006667
                 204,            0.019478,           0.0063379,            0.001157,             0.25018,              0.6875,             0.33734,             0.29687,            0.013595,           0.0071175,          0.00064616,           0.0066505,           0.0066505,           0.0066505
                 205,            0.017799,           0.0064511,          0.00094329,             0.25387,                0.75,             0.31841,             0.28755,            0.016121,            0.006954,          0.00073233,            0.006634,            0.006634,            0.006634
                 206,            0.018516,           0.0059016,          0.00077957,             0.27768,                0.75,             0.33773,             0.29747,            0.018254,           0.0066275,          0.00084333,           0.0066175,           0.0066175,           0.0066175
                 207,            0.018158,           0.0060313,           0.0012483,             0.26046,                0.75,             0.34973,             0.31331,            0.017749,           0.0066706,          0.00091314,            0.006601,            0.006601,            0.006601
                 208,            0.017423,           0.0062978,           0.0012085,             0.26535,                0.75,               0.364,             0.32645,            0.018826,           0.0070717,           0.0014668,           0.0065845,           0.0065845,           0.0065845
                 209,            0.019341,           0.0071302,           0.0012277,             0.25789,             0.68867,              0.3759,             0.31437,            0.018215,           0.0071634,          0.00077398,            0.006568,            0.006568,            0.006568
                 210,            0.017505,           0.0065847,            0.001237,             0.26323,             0.67857,              0.3651,             0.33302,            0.016713,           0.0067712,          0.00078448,           0.0065515,           0.0065515,           0.0065515
                 211,            0.017237,           0.0063259,           0.0011079,             0.23899,             0.71421,             0.33018,             0.29612,             0.01733,           0.0068466,          0.00088777,            0.006535,            0.006535,            0.006535
                 212,            0.016637,            0.006037,          0.00082978,             0.23782,              0.7366,             0.27491,             0.23971,            0.016264,           0.0076392,          0.00073862,           0.0065185,           0.0065185,           0.0065185
                 213,            0.017409,           0.0056156,           0.0008155,             0.24375,                0.75,             0.27755,             0.24095,            0.017203,           0.0071857,           0.0007583,            0.006502,            0.006502,            0.006502
                 214,            0.017004,           0.0061542,           0.0013588,             0.23231,                0.75,             0.33421,             0.30728,            0.016672,           0.0075233,           0.0010107,           0.0064855,           0.0064855,           0.0064855
                 215,            0.018172,           0.0063803,           0.0011126,             0.35318,             0.60281,             0.38305,             0.34815,            0.018591,           0.0074707,            0.002857,            0.006469,            0.006469,            0.006469
                 216,            0.015978,           0.0058857,          0.00090706,             0.30681,               0.607,             0.32595,              0.3103,            0.018569,           0.0074596,            0.003514,           0.0064525,           0.0064525,           0.0064525
                 217,            0.017847,            0.005917,           0.0010002,             0.28963,             0.62854,             0.33859,             0.32035,             0.01921,           0.0074813,           0.0033297,            0.006436,            0.006436,            0.006436
                 218,            0.016961,           0.0058394,           0.0009106,             0.24268,             0.72086,             0.30055,             0.28486,            0.018311,           0.0072399,           0.0018774,           0.0064195,           0.0064195,           0.0064195
                 219,            0.017598,           0.0066256,          0.00098297,             0.24517,             0.74999,             0.31149,             0.27818,            0.017385,           0.0074887,           0.0020199,            0.006403,            0.006403,            0.006403
                 220,            0.017721,           0.0066064,           0.0013865,             0.24283,             0.72472,             0.33039,             0.30571,            0.017468,           0.0076529,           0.0029646,           0.0063865,           0.0063865,           0.0063865
                 221,            0.017152,           0.0062688,          0.00086172,             0.24682,             0.71416,             0.32617,             0.28958,             0.01838,           0.0072965,           0.0023123,             0.00637,             0.00637,             0.00637
                 222,             0.01883,           0.0065876,           0.0013026,             0.24289,             0.71429,             0.31526,             0.28401,            0.015883,           0.0072796,           0.0014508,           0.0063535,           0.0063535,           0.0063535
                 223,            0.017508,           0.0062323,           0.0015115,               0.233,                   1,             0.33559,             0.29209,             0.01558,           0.0074183,          0.00076666,            0.006337,            0.006337,            0.006337
                 224,            0.016949,           0.0061174,           0.0010664,              0.2457,             0.71429,              0.3331,             0.30571,            0.015267,           0.0072872,          0.00080535,           0.0063205,           0.0063205,           0.0063205
                 225,            0.016991,           0.0057593,           0.0010386,               0.248,             0.71429,             0.38011,             0.35131,            0.017698,            0.007521,           0.0020266,            0.006304,            0.006304,            0.006304
                 226,            0.017164,           0.0059321,           0.0012753,             0.24934,             0.74876,             0.32617,             0.29524,            0.018658,           0.0073658,           0.0026678,           0.0062875,           0.0062875,           0.0062875
                 227,              0.0177,           0.0060049,           0.0011745,             0.24456,                0.75,             0.32604,               0.295,            0.017977,           0.0069042,           0.0021272,            0.006271,            0.006271,            0.006271
                 228,            0.016874,           0.0064934,          0.00076996,             0.24794,                0.75,             0.34519,             0.30906,            0.020833,           0.0072243,           0.0034773,           0.0062545,           0.0062545,           0.0062545
                 229,             0.01804,           0.0063604,          0.00089731,             0.26079,                0.75,             0.36447,               0.333,            0.021137,            0.007364,           0.0045148,            0.006238,            0.006238,            0.006238
                 230,            0.016675,           0.0053578,           0.0010149,             0.27308,                0.75,             0.35844,             0.32485,            0.020087,           0.0071029,           0.0058746,           0.0062215,           0.0062215,           0.0062215
                 231,            0.016891,           0.0058792,          0.00073434,             0.26591,             0.74801,                0.35,             0.32295,            0.017294,           0.0073966,           0.0034681,            0.006205,            0.006205,            0.006205
                 232,            0.016327,           0.0059171,          0.00089295,             0.26639,             0.74976,             0.35712,             0.32578,            0.017883,           0.0071683,           0.0021033,           0.0061885,           0.0061885,           0.0061885
                 233,             0.01842,            0.006256,          0.00086377,             0.26023,                0.75,             0.31676,             0.28624,            0.016002,           0.0069151,           0.0028685,            0.006172,            0.006172,            0.006172
                 234,            0.018365,           0.0060969,          0.00088198,             0.26219,             0.74785,             0.28697,             0.25852,            0.014632,           0.0072101,           0.0016828,           0.0061555,           0.0061555,           0.0061555
                 235,             0.01614,           0.0057614,          0.00078737,             0.24661,             0.74977,             0.30704,             0.27073,            0.014455,           0.0075001,           0.0012533,            0.006139,            0.006139,            0.006139
                 236,            0.016912,           0.0060361,           0.0012917,             0.24715,                0.75,             0.34381,               0.309,            0.014493,           0.0074421,          0.00083042,           0.0061225,           0.0061225,           0.0061225
                 237,            0.015812,           0.0054898,           0.0011265,             0.24086,                0.75,             0.32602,             0.29137,             0.01498,           0.0073636,          0.00074871,            0.006106,            0.006106,            0.006106
                 238,            0.016334,           0.0054321,          0.00084887,             0.24839,             0.71429,             0.33632,              0.3079,            0.014691,           0.0076229,          0.00098794,           0.0060895,           0.0060895,           0.0060895
                 239,            0.016594,            0.005539,          0.00098735,              0.2552,             0.71319,             0.32312,             0.29409,            0.014167,           0.0077034,          0.00071882,            0.006073,            0.006073,            0.006073
                 240,            0.016685,           0.0056815,           0.0007655,               0.256,             0.69208,             0.33355,              0.2985,            0.015918,           0.0075121,           0.0006527,           0.0060565,           0.0060565,           0.0060565
                 241,            0.018026,           0.0057918,          0.00086358,             0.24906,             0.74962,             0.32647,             0.28971,            0.013893,           0.0075405,          0.00074269,             0.00604,             0.00604,             0.00604
                 242,            0.016483,           0.0061889,           0.0013759,               0.248,                0.75,                0.31,             0.28588,             0.01333,           0.0078897,          0.00071881,           0.0060235,           0.0060235,           0.0060235
                 243,            0.017281,           0.0059881,          0.00080074,             0.24553,                0.75,             0.30187,             0.27043,            0.014304,           0.0079494,          0.00069688,            0.006007,            0.006007,            0.006007
                 244,            0.016416,           0.0057468,          0.00086895,              0.2387,             0.99993,             0.31607,             0.28517,            0.013004,            0.007625,          0.00067016,           0.0059905,           0.0059905,           0.0059905
                 245,            0.015256,           0.0058198,          0.00098491,             0.25591,             0.70317,             0.30392,             0.28079,            0.013728,           0.0076533,          0.00068004,            0.005974,            0.005974,            0.005974
                 246,            0.016384,           0.0060637,           0.0011033,             0.25679,              0.7099,             0.29852,             0.27301,            0.012491,           0.0075504,          0.00061385,           0.0059575,           0.0059575,           0.0059575
                 247,            0.016556,           0.0058783,           0.0013716,             0.23606,             0.96762,             0.30148,             0.26914,            0.013605,           0.0075389,          0.00059397,            0.005941,            0.005941,            0.005941
                 248,            0.015893,           0.0055361,          0.00064947,             0.24315,                0.75,             0.31272,             0.28235,            0.013668,           0.0074678,           0.0005961,           0.0059245,           0.0059245,           0.0059245
                 249,            0.015494,           0.0060553,           0.0009393,             0.24302,                0.75,             0.30221,             0.27227,            0.015125,           0.0076939,           0.0006683,            0.005908,            0.005908,            0.005908
                 250,             0.01674,            0.005702,           0.0011054,              0.2559,             0.71429,              0.2919,             0.26944,            0.013037,           0.0075064,           0.0006185,           0.0058915,           0.0058915,           0.0058915
                 251,            0.014854,           0.0055276,          0.00074407,             0.24483,             0.71291,             0.32999,             0.29644,            0.012205,           0.0074753,          0.00061202,            0.005875,            0.005875,            0.005875
                 252,            0.016388,           0.0055196,           0.0010619,             0.24394,             0.71429,              0.3171,             0.29285,            0.012757,            0.007538,          0.00067804,           0.0058585,           0.0058585,           0.0058585
                 253,             0.01741,           0.0056412,           0.0014184,             0.23454,                0.75,             0.34962,             0.31522,            0.013872,           0.0074209,          0.00076304,            0.005842,            0.005842,            0.005842
                 254,            0.015454,           0.0057358,          0.00089135,             0.26764,             0.71429,             0.36043,             0.31008,            0.015211,           0.0073013,          0.00074782,           0.0058255,           0.0058255,           0.0058255
                 255,            0.016451,           0.0055651,          0.00071463,             0.24022,             0.99992,             0.36274,             0.32101,            0.015313,           0.0072336,          0.00078293,            0.005809,            0.005809,            0.005809
                 256,            0.016888,           0.0059106,           0.0011026,             0.25691,             0.71429,             0.30706,              0.2777,            0.016305,           0.0074154,          0.00099681,           0.0057925,           0.0057925,           0.0057925
                 257,            0.015708,           0.0056286,          0.00086332,             0.24159,             0.71429,              0.3045,             0.28238,            0.016703,           0.0078762,           0.0012495,            0.005776,            0.005776,            0.005776
                 258,            0.015676,           0.0059754,           0.0011431,              0.2443,              0.7134,             0.27533,             0.25187,            0.015466,           0.0077431,           0.0010721,           0.0057595,           0.0057595,           0.0057595
                 259,            0.017023,           0.0054895,          0.00098954,             0.23478,                0.75,             0.31698,             0.28719,            0.014779,           0.0074372,           0.0010821,            0.005743,            0.005743,            0.005743
                 260,            0.015373,           0.0056128,          0.00083521,             0.23457,                0.75,              0.3279,             0.30373,            0.015105,           0.0073041,           0.0025174,           0.0057265,           0.0057265,           0.0057265
                 261,            0.015787,           0.0059485,           0.0013832,             0.24725,             0.71429,              0.3595,             0.34103,             0.01484,           0.0078739,           0.0012068,             0.00571,             0.00571,             0.00571
                 262,             0.01721,           0.0051089,          0.00079602,             0.26916,             0.71429,             0.34813,             0.32086,            0.014896,           0.0080442,           0.0011592,           0.0056935,           0.0056935,           0.0056935
                 263,            0.015243,           0.0055907,          0.00095714,             0.27676,             0.71429,              0.3217,             0.29796,            0.013942,           0.0079337,          0.00090492,            0.005677,            0.005677,            0.005677
                 264,             0.01549,           0.0056147,          0.00075788,             0.26395,             0.66915,             0.33211,              0.3139,            0.014568,           0.0082006,           0.0011065,           0.0056605,           0.0056605,           0.0056605
                 265,            0.016447,           0.0055691,           0.0007263,             0.24622,             0.74976,             0.33794,             0.32758,            0.015194,           0.0081751,           0.0010256,            0.005644,            0.005644,            0.005644
                 266,            0.014541,           0.0054405,           0.0010241,             0.27301,             0.71129,             0.38742,             0.35288,            0.013048,           0.0078662,          0.00067957,           0.0056275,           0.0056275,           0.0056275
                 267,            0.014425,           0.0057182,           0.0014637,             0.23907,             0.98778,             0.45362,             0.40298,            0.014696,           0.0075611,           0.0006223,            0.005611,            0.005611,            0.005611
                 268,            0.014522,           0.0060097,            0.001063,             0.28703,             0.74539,             0.40713,             0.37212,            0.014254,           0.0080504,          0.00056121,           0.0055945,           0.0055945,           0.0055945
                 269,            0.016627,           0.0057057,          0.00063378,             0.26806,                0.75,             0.39757,             0.36583,            0.014458,           0.0078167,          0.00071359,            0.005578,            0.005578,            0.005578
                 270,            0.014829,           0.0053637,          0.00093898,             0.30253,             0.74757,             0.38147,             0.36323,            0.015502,            0.008035,           0.0037438,           0.0055615,           0.0055615,           0.0055615
                 271,            0.014921,           0.0056126,          0.00096731,             0.32631,             0.64591,             0.35005,             0.33402,             0.01433,            0.008304,           0.0035763,            0.005545,            0.005545,            0.005545
                 272,            0.015115,           0.0055034,          0.00074515,             0.33864,             0.71429,             0.37274,             0.32686,            0.014002,           0.0083108,           0.0007982,           0.0055285,           0.0055285,           0.0055285
                 273,            0.015992,           0.0058496,           0.0012767,             0.29389,              0.6132,             0.41941,             0.37564,            0.013601,           0.0079846,          0.00046854,            0.005512,            0.005512,            0.005512
