Vulpes_vulpes,1119,972,106,246,IMG_4456.JPG,2048,1536
Vulpes_vulpes,1121,881,178,216,IMG_4459.JPG,2048,1536
Vulpes_vulpes,1291,1199,757,301,IMG_4533.JPG,2048,1536
Vulpes_vulpes,1055,1157,633,346,IMG2_0183.jpg,2048,1536
Vulpes_vulpes,565,865,424,146,IMG2_0234.jpg,2048,1536
Vulpes_vulpes,630,1146,194,269,IMG2_1705.jpg,2048,1536
Vulpes_vulpes,1177,1111,871,359,IMG2_1864.jpg,2048,1536
Vulpes_vulpes,1008,1044,287,357,IMG2_1869.jpg,2048,1536
Vulpes_vulpes,1187,823,204,149,IMG2_3519.jpg,2048,1536
Vulpes_vulpes,210,791,73,78,IMG2_3632.jpg,2048,1536
Vulpes_vulpes,1418,1163,496,185,IMG2_3710.jpg,2048,1536
Vulpes_vulpes,190,942,316,131,IMG2_4078.jpg,2048,1536
Vulpes_vulpes,1526,964,287,197,IMG2_4108.jpg,2048,1536
Vulpes_vulpes,1465,943,195,268,IMG2_5356.jpg,2048,1536
Vulpes_vulpes,221,1037,778,429,IMG2_7141.jpg,2048,1536
Vulpes_vulpes,982,865,98,87,IMG3_0420.jpg,2048,1536
Vulpes_vulpes,201,724,211,149,IMG3_1617.jpg,2048,1536
Vulpes_vulpes,1189,815,243,157,IMG3_2667.jpg,2048,1536
Vulpes_vulpes,387,903,246,89,IMG3_2831.jpg,2048,1536
Vulpes_vulpes,1461,881,53,97,IMG3_2856.jpg,2048,1536
Vulpes_vulpes,311,1204,1066,307,IMG4_0142.jpg,2048,1536
Vulpes_vulpes,644,1100,868,361,IMG_0014.JPG,2048,1536
Vulpes_vulpes,229,1288,961,214,IMG_0106.JPG,2048,1536
Vulpes_vulpes,733,864,261,154,IMG_0129.JPG,2048,1536
Vulpes_vulpes,390,768,58,125,IMG_0138.JPG,2048,1536
Vulpes_vulpes,1285,841,263,160,IMG_0215.JPG,2048,1536
Vulpes_vulpes,1069,900,90,206,IMG_0220.JPG,2048,1536
Vulpes_vulpes,976,927,174,239,IMG_0223.JPG,2048,1536
Vulpes_vulpes,1359,840,225,164,IMG_0244.JPG,2048,1536
Vulpes_vulpes,1086,814,314,116,IMG_0278.JPG,2048,1536
Vulpes_vulpes,0,1176,709,325,IMG_0281.JPG,2048,1536
Vulpes_vulpes,0,1167,267,335,IMG_0362.JPG,2048,1536
Vulpes_vulpes,1110,1229,535,248,IMG_0369.JPG,2048,1536
Vulpes_vulpes,1578,1218,470,218,IMG_0371.JPG,2048,1536
Vulpes_vulpes,1754,1207,294,204,IMG_0373.JPG,2048,1536
Vulpes_vulpes,86,1109,727,393,IMG_0385.JPG,2048,1536
Vulpes_vulpes,318,1114,767,383,IMG_0390.JPG,2048,1536
Vulpes_vulpes,980,1039,364,360,IMG_0393.JPG,2048,1536
Vulpes_vulpes,1676,783,99,142,IMG_0400.JPG,2048,1536
Vulpes_vulpes,1120,1179,883,327,IMG_0429.JPG,2048,1536
Vulpes_vulpes,506,795,102,72,IMG_0442.JPG,2048,1536
Vulpes_vulpes,1108,825,367,143,IMG_0577.JPG,2048,1536
Vulpes_vulpes,1629,716,363,223,IMG_0579.JPG,2048,1536
Vulpes_vulpes,1266,1074,782,382,IMG_0582.JPG,2048,1536
Vulpes_vulpes,443,1108,644,394,IMG_0630.JPG,2048,1536
Vulpes_vulpes,532,1181,951,323,IMG_0635.JPG,2048,1536
Vulpes_vulpes,209,778,78,98,IMG_0650.JPG,2048,1536
Vulpes_vulpes,405,1127,613,377,IMG_0683.JPG,2048,1536
Vulpes_vulpes,265,1047,638,456,IMG_0685.JPG,2048,1536
Vulpes_vulpes,1195,978,555,392,IMG_0915.JPG,2048,1536
Vulpes_vulpes,328,1117,828,363,IMG_0921.JPG,2048,1536
Vulpes_vulpes,872,1249,659,254,IMG_0931.JPG,2048,1536
Vulpes_vulpes,1683,723,316,180,IMG_0983.JPG,2048,1536
Vulpes_vulpes,397,1033,841,402,IMG_1023.JPG,2048,1536
Vulpes_vulpes,1298,988,740,363,IMG_1031.JPG,2048,1536
Vulpes_vulpes,396,1056,918,416,IMG_1211.JPG,2048,1536
Vulpes_vulpes,639,1119,712,319,IMG_3363.JPG,2048,1536
Vulpes_vulpes,1120,974,103,239,IMG_4456.JPG,2048,1536
Vulpes_vulpes,1122,883,178,219,IMG_4459.JPG,2048,1536
Vulpes_vulpes,1289,1202,759,295,IMG_4533.JPG,2048,1536