Dama_dama,159,675,176,221,IMG2_0659.jpg,2048,1536
Dama_dama,394,689,218,193,IMG2_0679.jpg,2048,1536
Dama_dama,157,678,194,211,IMG3_0539.jpg,2048,1536
Dama_dama,1442,681,191,182,IMG3_0613.jpg,2048,1536
Dama_dama,1706,652,193,205,IMG_0155.JPG,2048,1536
Dama_dama,1185,698,863,768,IMG_02073.JPG,2048,1536
Dama_dama,505,657,903,818,IMG_02075.JPG,2048,1536
Dama_dama,945,312,1103,1150,IMG_02083.JPG,2048,1536
Dama_dama,915,418,1133,1019,IMG_02088.JPG,2048,1536
Dama_dama,1526,707,382,364,IMG_0220.JPG,2048,1536
Dama_dama,469,737,197,191,IMG_0614.JPG,2048,1536
Dama_dama,778,619,332,262,IMG_0907.JPG,2048,1536
Dama_dama,236,648,388,190,IMG_0909.JPG,2048,1536
Dama_dama,1273,630,334,192,IMG_0909.JPG,2048,1536
Dama_dama,0,639,243,205,IMG_0912.JPG,2048,1536
Dama_dama,886,607,318,240,IMG_0912.JPG,2048,1536
Dama_dama,1342,675,235,156,IMG_0912.JPG,2048,1536
Dama_dama,443,603,366,260,IMG_0915.JPG,2048,1536
Dama_dama,1329,664,217,170,IMG_0915.JPG,2048,1536
Dama_dama,565,624,269,221,IMG_0932.JPG,2048,1536
Dama_dama,936,662,246,161,IMG_2628.JPG,2048,1536
Dama_dama,1464,624,292,210,IMG_2628.JPG,2048,1536
Dama_dama,0,648,287,233,IMG_2637.JPG,2048,1536
Dama_dama,276,671,100,160,IMG_2637.JPG,2048,1536
Dama_dama,1031,608,348,235,IMG_2637.JPG,2048,1536
Dama_dama,1403,617,375,246,IMG_2637.JPG,2048,1536
Dama_dama,1697,682,203,163,IMG_2637.JPG,2048,1536
Dama_dama,0,646,365,233,IMG_2640.JPG,2048,1536
Dama_dama,1306,617,359,237,IMG_2640.JPG,2048,1536
Dama_dama,1659,641,370,219,IMG_2640.JPG,2048,1536
Dama_dama,324,676,343,305,IMG_2778.JPG,2048,1536
Dama_dama,760,423,1120,752,IMG_2785.JPG,2048,1536
Dama_dama,859,359,1021,1012,IMG_2793.JPG,2048,1536
Dama_dama,91,319,1245,1159,IMG_2809.JPG,2048,1536
Dama_dama,803,323,1206,1184,IMG_2819.JPG,2048,1536
Dama_dama,0,36,1401,1464,IMG_2842.JPG,2048,1536
Dama_dama,0,38,631,1461,IMG_2857.JPG,2048,1536
Dama_dama,821,669,307,253,IMG_2870.JPG,2048,1536
Dama_dama,832,671,318,249,IMG_2876.JPG,2048,1536
Dama_dama,617,635,145,210,IMG_2921.JPG,2048,1536
Dama_dama,1230,644,131,206,IMG_2921.JPG,2048,1536
Dama_dama,1291,205,757,951,IMG_2960.JPG,2048,1536
Dama_dama,531,327,1294,800,IMG_2963.JPG,2048,1536
Dama_dama,0,497,667,601,IMG_2972.JPG,2048,1536
Dama_dama,609,438,423,786,IMG_2981.JPG,2048,1536
Dama_dama,410,669,599,592,IMG_2987.JPG,2048,1536
Dama_dama,818,650,217,142,IMG_4386.JPG,2048,1536
Dama_dama,1510,533,400,517,IMG_4386.JPG,2048,1536
Dama_dama,1421,657,309,413,IMG_4396.JPG,2048,1536
Dama_dama,1320,689,188,300,IMG_4402.JPG,2048,1536
Dama_dama,498,422,291,707,IMG_6411.JPG,2048,1536
Dama_dama,224,366,488,833,IMG_6413.JPG,2048,1536