Meles_meles,572,1084,493,294,IMG2_0020.jpg,2048,1536
Meles_meles,57,1074,386,328,IMG2_0034.jpg,2048,1536
Meles_meles,30,1071,313,311,IMG2_0038.jpg,2048,1536
Meles_meles,213,1121,191,280,IMG_0008.JPG,2048,1536
Meles_meles,102,1118,297,290,IMG_0010.JPG,2048,1536
Meles_meles,117,1116,284,304,IMG_0011.JPG,2048,1536
Vulpes_vulpes,644,1100,868,361,IMG_0014.JPG,2048,1536
Meles_meles,914,1083,689,276,IMG_00253.JPG,2048,1536
Meles_meles,0,1100,602,252,IMG_00257.JPG,2048,1536
Dama_dama,1666,737,316,188,IMG_0148.JPG,2048,1536
Meles_meles,1294,1108,468,363,IMG_0259.JPG,2048,1536
Meles_meles,1379,1157,669,292,IMG_0260.JPG,2048,1536
Meles_meles,921,705,100,102,IMG_0273.JPG,2048,1536
Meles_meles,248,1030,329,223,IMG_0590.JPG,2048,1536
Meles_meles,471,1056,398,198,IMG_0592.JPG,2048,1536
Meles_meles,605,1059,284,171,IMG_0593.JPG,2048,1536
Meles_meles,686,1022,179,194,IMG_0596.JPG,2048,1536
Meles_meles,1312,1140,663,274,IMG_0839.JPG,2048,1536
Meles_meles,472,930,265,150,IMG_0853.JPG,2048,1536
Meles_meles,850,945,419,178,IMG_0854.JPG,2048,1536
Meles_meles,1034,1099,430,250,IMG_0905.JPG,2048,1536
Meles_meles,1351,1123,274,264,IMG_0910.JPG,2048,1536
Dama_dama,0,639,243,205,IMG_0912.JPG,2048,1536
Dama_dama,886,607,318,240,IMG_0912.JPG,2048,1536
Dama_dama,1342,675,235,156,IMG_0912.JPG,2048,1536
Meles_meles,1340,1172,233,220,IMG_0913.JPG,2048,1536
Meles_meles,994,975,136,156,IMG_0927.JPG,2048,1536
Meles_meles,557,1161,445,332,IMG_1781.JPG,2048,1536
Meles_meles,601,1189,595,299,IMG_1782.JPG,2048,1536
Meles_meles,734,1195,678,290,IMG_1783.JPG,2048,1536
Meles_meles,1297,1138,751,301,IMG_1784.JPG,2048,1536
Meles_meles,487,1086,223,307,IMG_1831.JPG,2048,1536
Meles_meles,265,1030,341,192,IMG_1832.JPG,2048,1536
Meles_meles,128,1024,323,163,IMG_1833.JPG,2048,1536
Meles_meles,13,1014,246,144,IMG_1834.JPG,2048,1536
Meles_meles,767,1096,493,244,IMG_1841.JPG,2048,1536
Meles_meles,1031,1114,597,227,IMG_1842.JPG,2048,1536
Meles_meles,1653,1123,395,260,IMG_1843.JPG,2048,1536
Meles_meles,1643,1143,405,231,IMG_1844.JPG,2048,1536
Meles_meles,1649,1145,399,237,IMG_1845.JPG,2048,1536
Meles_meles,1645,1144,403,235,IMG_1846.JPG,2048,1536
Meles_meles,1675,1160,373,215,IMG_1847.JPG,2048,1536
Meles_meles,1645,1152,403,233,IMG_1848.JPG,2048,1536
Meles_meles,1633,1156,415,231,IMG_1849.JPG,2048,1536
Meles_meles,1702,1153,346,202,IMG_1850.JPG,2048,1536
Meles_meles,211,895,322,129,IMG_2079.JPG,2048,1536
Meles_meles,597,913,310,97,IMG_2080.JPG,2048,1536
Meles_meles,972,883,291,122,IMG_2081.JPG,2048,1536
Meles_meles,1333,877,296,97,IMG_2082.JPG,2048,1536
Meles_meles,1668,825,217,120,IMG_2083.JPG,2048,1536
Meles_meles,1882,758,166,120,IMG_2084.JPG,2048,1536
Meles_meles,993,1066,355,280,IMG_2563.JPG,2048,1536
Meles_meles,1020,1065,374,279,IMG_2564.JPG,2048,1536
Meles_meles,1077,1065,306,287,IMG_2565.JPG,2048,1536
Meles_meles,1067,1047,339,304,IMG_2566.JPG,2048,1536
Meles_meles,1071,1044,322,305,IMG_2567.JPG,2048,1536
Meles_meles,1076,1050,346,298,IMG_2568.JPG,2048,1536
Meles_meles,1095,1058,306,282,IMG_2569.JPG,2048,1536
Meles_meles,1103,1061,311,278,IMG_2570.JPG,2048,1536
Meles_meles,1123,1047,293,288,IMG_2571.JPG,2048,1536
Meles_meles,1131,1042,398,269,IMG_2572.JPG,2048,1536