2 0.763644 0.532277 0.050176 0.078638
2 0.798415 0.559859 0.052817 0.042254
2 0.902729 0.536385 0.044894 0.035211
2 0.939701 0.530516 0.048415 0.030516
2 0.980634 0.546948 0.038732 0.037559
2 0.405810 0.529930 0.029930 0.031690
2 0.441901 0.539906 0.033451 0.030516
2 0.485915 0.537559 0.035211 0.032864
2 0.601673 0.545188 0.039613 0.034038
2 0.658451 0.537559 0.028169 0.030516
2 0.705986 0.549296 0.045775 0.039906